\BOOKMARK [1][-]{section*.1}{\376\377\000P\000e\000r\000s\000o\000n\000a\000g\000e\000m}{}% 1
\BOOKMARK [1][-]{section*.2}{\376\377\000A\000s\000p\000e\000c\000t\000o\000s}{}% 2
\BOOKMARK [1][-]{section*.3}{\376\377\000A\000b\000o\000r\000d\000a\000g\000e\000n\000s}{}% 3
\BOOKMARK [1][-]{section*.4}{\376\377\000F\000a\000\347\000a\000n\000h\000a\000s}{}% 4
\BOOKMARK [1][-]{section*.5}{\376\377\000E\000s\000t\000r\000e\000s\000s\000e}{}% 5
\BOOKMARK [1][-]{section*.6}{\376\377\000C\000o\000n\000s\000e\000q\000u\000\352\000n\000c\000i\000a\000s}{}% 6
