\relax 
\providecommand\hyper@newdestlabel[2]{}
\providecommand\babel@aux[2]{}
\@nameuse{bbl@beforestart}
\catcode `"\active 
\providecommand\HyperFirstAtBeginDocument{\AtBeginDocument}
\HyperFirstAtBeginDocument{\ifx\hyper@anchor\@undefined
\global\let\oldcontentsline\contentsline
\gdef\contentsline#1#2#3#4{\oldcontentsline{#1}{#2}{#3}}
\global\let\oldnewlabel\newlabel
\gdef\newlabel#1#2{\newlabelxx{#1}#2}
\gdef\newlabelxx#1#2#3#4#5#6{\oldnewlabel{#1}{{#2}{#3}}}
\AtEndDocument{\ifx\hyper@anchor\@undefined
\let\contentsline\oldcontentsline
\let\newlabel\oldnewlabel
\fi}
\fi}
\global\let\hyper@last\relax 
\gdef\HyperFirstAtBeginDocument#1{#1}
\providecommand\HyField@AuxAddToFields[1]{}
\providecommand\HyField@AuxAddToCoFields[2]{}
\babel@aux{brazilian}{}
\@writefile{toc}{\contentsline {section}{Personagem}{1}{section*.1}\protected@file@percent }
\newlabel{sec:personagem}{{}{1}{Personagem}{section*.1}{}}
\HyField@AuxAddToFields{47}
\HyField@AuxAddToFields{48}
\HyField@AuxAddToFields{49}
\HyField@AuxAddToFields{50}
\@writefile{toc}{\contentsline {section}{Aspectos}{1}{section*.2}\protected@file@percent }
\newlabel{sec:aspectos}{{}{1}{Aspectos}{section*.2}{}}
\HyField@AuxAddToFields{52}
\HyField@AuxAddToFields{53}
\HyField@AuxAddToFields{54}
\HyField@AuxAddToFields{55}
\HyField@AuxAddToFields{56}
\@writefile{toc}{\contentsline {section}{Perícias}{1}{section*.3}\protected@file@percent }
\newlabel{sec:pericias}{{}{1}{Perícias}{section*.3}{}}
\HyField@AuxAddToFields{57}
\HyField@AuxAddToFields{58}
\HyField@AuxAddToFields{59}
\HyField@AuxAddToFields{60}
\HyField@AuxAddToFields{61}
\HyField@AuxAddToFields{62}
\HyField@AuxAddToFields{63}
\HyField@AuxAddToFields{64}
\HyField@AuxAddToFields{65}
\HyField@AuxAddToFields{66}
\HyField@AuxAddToFields{67}
\HyField@AuxAddToFields{68}
\HyField@AuxAddToFields{69}
\HyField@AuxAddToFields{70}
\HyField@AuxAddToFields{71}
\HyField@AuxAddToFields{72}
\HyField@AuxAddToFields{73}
\HyField@AuxAddToFields{74}
\HyField@AuxAddToFields{75}
\HyField@AuxAddToFields{76}
\HyField@AuxAddToFields{77}
\HyField@AuxAddToFields{78}
\HyField@AuxAddToFields{79}
\HyField@AuxAddToFields{80}
\HyField@AuxAddToFields{81}
\@writefile{toc}{\contentsline {section}{Façanhas}{1}{section*.4}\protected@file@percent }
\newlabel{sec:facanhas}{{}{1}{Façanhas}{section*.4}{}}
\HyField@AuxAddToFields{82}
\@writefile{toc}{\contentsline {section}{Extras}{1}{section*.5}\protected@file@percent }
\newlabel{sec:extras}{{}{1}{Extras}{section*.5}{}}
\HyField@AuxAddToFields{83}
\@writefile{toc}{\contentsline {section}{Estresse Físico (Vigor)}{1}{section*.6}\protected@file@percent }
\newlabel{sec:estresse-fisico}{{}{1}{Estresse Físico (Vigor)}{section*.6}{}}
\HyField@AuxAddToFields{84}
\HyField@AuxAddToFields{85}
\HyField@AuxAddToFields{86}
\HyField@AuxAddToFields{87}
\HyField@AuxAddToFields{88}
\HyField@AuxAddToFields{89}
\@writefile{toc}{\contentsline {section}{Estresse Mental (Vontade)}{1}{section*.7}\protected@file@percent }
\newlabel{sec:estresse-mental}{{}{1}{Estresse Mental (Vontade)}{section*.7}{}}
\HyField@AuxAddToFields{90}
\HyField@AuxAddToFields{91}
\HyField@AuxAddToFields{92}
\HyField@AuxAddToFields{93}
\HyField@AuxAddToFields{94}
\HyField@AuxAddToFields{95}
\@writefile{toc}{\contentsline {section}{Consequências}{1}{section*.8}\protected@file@percent }
\newlabel{sec:consequencias}{{}{1}{Consequências}{section*.8}{}}
\HyField@AuxAddToFields{96}
\HyField@AuxAddToFields{97}
\HyField@AuxAddToFields{98}
\HyField@AuxAddToFields{99}
\gdef \@abspage@last{1}
