\relax 
\providecommand\hyper@newdestlabel[2]{}
\providecommand\babel@aux[2]{}
\@nameuse{bbl@beforestart}
\catcode `"\active 
\providecommand\HyperFirstAtBeginDocument{\AtBeginDocument}
\HyperFirstAtBeginDocument{\ifx\hyper@anchor\@undefined
\global\let\oldcontentsline\contentsline
\gdef\contentsline#1#2#3#4{\oldcontentsline{#1}{#2}{#3}}
\global\let\oldnewlabel\newlabel
\gdef\newlabel#1#2{\newlabelxx{#1}#2}
\gdef\newlabelxx#1#2#3#4#5#6{\oldnewlabel{#1}{{#2}{#3}}}
\AtEndDocument{\ifx\hyper@anchor\@undefined
\let\contentsline\oldcontentsline
\let\newlabel\oldnewlabel
\fi}
\fi}
\global\let\hyper@last\relax 
\gdef\HyperFirstAtBeginDocument#1{#1}
\providecommand\HyField@AuxAddToFields[1]{}
\providecommand\HyField@AuxAddToCoFields[2]{}
\babel@aux{brazilian}{}
\@writefile{toc}{\contentsline {section}{Manual para Redação de Aspectos em Fate RPG}{1}{section*.1}\protected@file@percent }
\newlabel{sec:01}{{}{1}{Manual para Redação de Aspectos em Fate RPG}{section*.1}{}}
\@writefile{toc}{\contentsline {subsection}{Resumo}{1}{subsection*.2}\protected@file@percent }
\newlabel{subsec:01-01}{{}{1}{Resumo}{subsection*.2}{}}
\@writefile{toc}{\contentsline {subsection}{Definição de Aspecto}{1}{subsection*.3}\protected@file@percent }
\newlabel{subsec:01-02}{{}{1}{Definição de Aspecto}{subsection*.3}{}}
\@writefile{toc}{\contentsline {subsection}{Redação de um Aspecto: noções básicas}{2}{subsection*.4}\protected@file@percent }
\newlabel{subsec:01-03}{{}{2}{Redação de um Aspecto: noções básicas}{subsection*.4}{}}
\@writefile{toc}{\contentsline {subsubsection}{Sentido duplo}{2}{subsubsection*.5}\protected@file@percent }
\newlabel{subsubsec:01-03-01}{{}{2}{Sentido duplo}{subsubsection*.5}{}}
\@writefile{toc}{\contentsline {subsubsection}{Dizendo mais de uma coisa em uma frase simples}{2}{subsubsection*.6}\protected@file@percent }
\newlabel{subsubsec:01-03-02}{{}{2}{Dizendo mais de uma coisa em uma frase simples}{subsubsection*.6}{}}
\@writefile{toc}{\contentsline {subsubsection}{Técnicas e exemplos de redação básica de Aspectos}{3}{subsubsection*.7}\protected@file@percent }
\newlabel{subsubsec:01-03-03}{{}{3}{Técnicas e exemplos de redação básica de Aspectos}{subsubsection*.7}{}}
\gdef \@abspage@last{4}
