\relax 
\providecommand\hyper@newdestlabel[2]{}
\providecommand\babel@aux[2]{}
\@nameuse{bbl@beforestart}
\catcode `"\active 
\providecommand\HyperFirstAtBeginDocument{\AtBeginDocument}
\HyperFirstAtBeginDocument{\ifx\hyper@anchor\@undefined
\global\let\oldcontentsline\contentsline
\gdef\contentsline#1#2#3#4{\oldcontentsline{#1}{#2}{#3}}
\global\let\oldnewlabel\newlabel
\gdef\newlabel#1#2{\newlabelxx{#1}#2}
\gdef\newlabelxx#1#2#3#4#5#6{\oldnewlabel{#1}{{#2}{#3}}}
\AtEndDocument{\ifx\hyper@anchor\@undefined
\let\contentsline\oldcontentsline
\let\newlabel\oldnewlabel
\fi}
\fi}
\global\let\hyper@last\relax 
\gdef\HyperFirstAtBeginDocument#1{#1}
\providecommand\HyField@AuxAddToFields[1]{}
\providecommand\HyField@AuxAddToCoFields[2]{}
\babel@aux{brazilian}{}
\@writefile{toc}{\contentsline {section}{Personagem}{1}{section*.1}\protected@file@percent }
\newlabel{sec:personagem}{{}{1}{Personagem}{section*.1}{}}
\HyField@AuxAddToFields{39}
\HyField@AuxAddToFields{40}
\HyField@AuxAddToFields{41}
\HyField@AuxAddToFields{42}
\@writefile{toc}{\contentsline {section}{Aspectos}{1}{section*.2}\protected@file@percent }
\newlabel{sec:aspectos}{{}{1}{Aspectos}{section*.2}{}}
\HyField@AuxAddToFields{44}
\HyField@AuxAddToFields{45}
\HyField@AuxAddToFields{46}
\HyField@AuxAddToFields{47}
\HyField@AuxAddToFields{48}
\@writefile{toc}{\contentsline {section}{Abordagens}{1}{section*.3}\protected@file@percent }
\newlabel{sec:abordagens}{{}{1}{Abordagens}{section*.3}{}}
\HyField@AuxAddToFields{49}
\HyField@AuxAddToFields{50}
\HyField@AuxAddToFields{51}
\HyField@AuxAddToFields{52}
\HyField@AuxAddToFields{53}
\HyField@AuxAddToFields{54}
\@writefile{toc}{\contentsline {section}{Façanhas}{1}{section*.4}\protected@file@percent }
\newlabel{sec:facanhas}{{}{1}{Façanhas}{section*.4}{}}
\HyField@AuxAddToFields{55}
\@writefile{toc}{\contentsline {section}{Estresse}{1}{section*.5}\protected@file@percent }
\newlabel{sec:estresse-fisico}{{}{1}{Estresse}{section*.5}{}}
\HyField@AuxAddToFields{56}
\HyField@AuxAddToFields{57}
\HyField@AuxAddToFields{58}
\@writefile{toc}{\contentsline {section}{Consequências}{1}{section*.6}\protected@file@percent }
\newlabel{sec:consequencias}{{}{1}{Consequências}{section*.6}{}}
\HyField@AuxAddToFields{59}
\HyField@AuxAddToFields{60}
\HyField@AuxAddToFields{61}
\gdef \@abspage@last{1}
