<?xml version="1.0" encoding="UTF-8" standalone="no"?>
<!-- Created with Inkscape (http://www.inkscape.org/) -->

<svg
   xmlns:dc="http://purl.org/dc/elements/1.1/"
   xmlns:cc="http://creativecommons.org/ns#"
   xmlns:rdf="http://www.w3.org/1999/02/22-rdf-syntax-ns#"
   xmlns:svg="http://www.w3.org/2000/svg"
   xmlns="http://www.w3.org/2000/svg"
   xmlns:sodipodi="http://sodipodi.sourceforge.net/DTD/sodipodi-0.dtd"
   xmlns:inkscape="http://www.inkscape.org/namespaces/inkscape"
   width="848mm"
   height="646mm"
   viewBox="0 0 848 646"
   version="1.1"
   id="svg927"
   inkscape:version="0.92.4 (5da689c313, 2019-01-14)"
   sodipodi:docname="fm_dice.svg"
   inkscape:export-filename="/home/ansate/Área de trabalho/logo fate masters/dado/fm_dice.png"
   inkscape:export-xdpi="96"
   inkscape:export-ydpi="96">
  <defs
     id="defs921" />
  <sodipodi:namedview
     id="base"
     pagecolor="#ffffff"
     bordercolor="#666666"
     borderopacity="1.0"
     inkscape:pageopacity="0.0"
     inkscape:pageshadow="2"
     inkscape:zoom="0.15621595"
     inkscape:cx="617.04497"
     inkscape:cy="1201.5832"
     inkscape:document-units="mm"
     inkscape:current-layer="layer1"
     showgrid="false"
     inkscape:snap-bbox="true"
     inkscape:bbox-paths="true"
     inkscape:bbox-nodes="true"
     fit-margin-top="20"
     fit-margin-left="20"
     fit-margin-right="20"
     fit-margin-bottom="20"
     inkscape:window-width="1366"
     inkscape:window-height="703"
     inkscape:window-x="0"
     inkscape:window-y="0"
     inkscape:window-maximized="1" />
  <metadata
     id="metadata924">
    <rdf:RDF>
      <cc:Work
         rdf:about="">
        <dc:format>image/svg+xml</dc:format>
        <dc:type
           rdf:resource="http://purl.org/dc/dcmitype/StillImage" />
        <dc:title />
      </cc:Work>
    </rdf:RDF>
  </metadata>
  <g
     inkscape:label="Camada 1"
     inkscape:groupmode="layer"
     id="layer1"
     transform="translate(282.01786,214.23215)">
    <path
       inkscape:connector-curvature="0"
       id="path2940"
       d="m -241.01786,8.7678571 h 160.000003 c 11.08,0 20,8.9199999 20,19.9999999 V 188.76786 c 0,11.08 -8.92,20 -20,20 H -241.01786 c -11.08,0 -20,-8.92 -20,-20 V 28.767857 c 0,-11.08 8.92,-19.9999999 20,-19.9999999 z"
       style="opacity:1;fill:#1b75bc;fill-opacity:1;stroke:#ffffff;stroke-width:2;stroke-linecap:round;stroke-linejoin:round;stroke-miterlimit:4;stroke-dasharray:none;stroke-opacity:1" />
    <path
       style="opacity:1;fill:#1b75bc;fill-opacity:1;stroke:#ffffff;stroke-width:2;stroke-linecap:round;stroke-linejoin:round;stroke-miterlimit:4;stroke-dasharray:none;stroke-opacity:1"
       d="m 162.98215,-193.23215 h 160 c 11.08,0 20,8.92 20,20 v 160.000004 c 0,11.0800031 -8.92,20.0000031 -20,20.0000031 h -160 c -11.08,0 -20,-8.92 -20,-20.0000031 V -173.23215 c 0,-11.08 8.92,-20 20,-20 z"
       id="path1481"
       inkscape:connector-curvature="0" />
    <path
       inkscape:connector-curvature="0"
       id="path1483"
       d="m 162.98214,210.76786 h 160.00001 c 11.08,0 20,8.92 20,20 v 160.00001 c 0,11.08 -8.92,20 -20,20 H 162.98214 c -11.08,0 -20,-8.92 -20,-20 V 230.76786 c 0,-11.08 8.92,-20 20,-20 z"
       style="opacity:1;fill:#1b75bc;fill-opacity:1;stroke:#ffffff;stroke-width:2;stroke-linecap:round;stroke-linejoin:round;stroke-miterlimit:4;stroke-dasharray:none;stroke-opacity:1" />
    <path
       style="opacity:1;fill:#1b75bc;fill-opacity:1;stroke:#ffffff;stroke-width:2;stroke-linecap:round;stroke-linejoin:round;stroke-miterlimit:4;stroke-dasharray:none;stroke-opacity:1"
       d="m 364.98215,8.7678571 h 160.00001 c 11.08,0 20,8.9199999 20,19.9999999 V 188.76786 c 0,11.08 -8.92,20 -20,20 H 364.98215 c -11.08,0 -20,-8.92 -20,-20 V 28.767857 c 0,-11.08 8.92,-19.9999999 20,-19.9999999 z"
       id="path1485"
       inkscape:connector-curvature="0" />
    <path
       inkscape:connector-curvature="0"
       id="path1487"
       d="m 162.98214,8.7678571 h 160.00001 c 11.08,0 20,8.9199999 20,19.9999999 V 188.76786 c 0,11.08 -8.92,20 -20,20 H 162.98214 c -11.08,0 -20,-8.92 -20,-20 V 28.767857 c 0,-11.08 8.92,-19.9999999 20,-19.9999999 z"
       style="opacity:1;fill:#1b75bc;fill-opacity:1;stroke:#ffffff;stroke-width:2;stroke-linecap:round;stroke-linejoin:round;stroke-miterlimit:4;stroke-dasharray:none;stroke-opacity:1" />
    <path
       style="opacity:1;fill:#1b75bc;fill-opacity:1;stroke:#ffffff;stroke-width:2;stroke-linecap:round;stroke-linejoin:round;stroke-miterlimit:4;stroke-dasharray:none;stroke-opacity:1"
       d="M -39.017857,8.7678571 H 120.98214 c 11.08,0 20,8.9199999 20,19.9999999 V 188.76786 c 0,11.08 -8.92,20 -20,20 H -39.017857 c -11.08,0 -20,-8.92 -20,-20 V 28.767857 c 0,-11.08 8.92,-19.9999999 20,-19.9999999 z"
       id="path1489"
       inkscape:connector-curvature="0" />
    <text
       xml:space="preserve"
       style="font-style:normal;font-variant:normal;font-weight:normal;font-stretch:normal;font-size:176.3888855px;line-height:1.25;font-family:Gotham;-inkscape-font-specification:Gotham;letter-spacing:0px;word-spacing:0px;fill:#ffffff;fill-opacity:1;stroke:#c0c0c0;stroke-width:2;stroke-miterlimit:4;stroke-dasharray:none;stroke-opacity:1"
       x="20.842144"
       y="317.06549"
       id="text1493"
       transform="rotate(-90)"><tspan
         sodipodi:role="line"
         id="tspan1491"
         x="20.842144"
         y="317.06549"
         style="font-style:normal;font-variant:normal;font-weight:normal;font-stretch:normal;font-size:211.66667175px;font-family:'Gotham Black';-inkscape-font-specification:'Gotham Black, ';fill:#ffffff;fill-opacity:1;stroke:#c0c0c0;stroke-width:2;stroke-miterlimit:4;stroke-dasharray:none;stroke-opacity:1">F</tspan></text>
    <text
       xml:space="preserve"
       style="font-style:normal;font-variant:normal;font-weight:normal;font-stretch:normal;font-size:176.3888855px;line-height:1.25;font-family:Gotham;-inkscape-font-specification:Gotham;letter-spacing:0px;word-spacing:0px;fill:#ffffff;fill-opacity:1;stroke:#c0c0c0;stroke-width:2;stroke-miterlimit:4;stroke-dasharray:none;stroke-opacity:1"
       x="-402.6312"
       y="317.06549"
       id="text1497"
       transform="rotate(-90)"><tspan
         sodipodi:role="line"
         id="tspan1495"
         x="-402.6312"
         y="317.06549"
         style="font-style:normal;font-variant:normal;font-weight:normal;font-stretch:normal;font-size:211.66667175px;font-family:'Gotham Black';-inkscape-font-specification:'Gotham Black, ';fill:#ffffff;fill-opacity:1;stroke:#c0c0c0;stroke-width:2;stroke-miterlimit:4;stroke-dasharray:none;stroke-opacity:1">M</tspan></text>
    <text
       xml:space="preserve"
       style="font-style:normal;font-variant:normal;font-weight:normal;font-stretch:normal;font-size:176.3888855px;line-height:1.25;font-family:Gotham;-inkscape-font-specification:Gotham;letter-spacing:0px;word-spacing:0px;fill:#ffffff;fill-opacity:1;stroke:#c0c0c0;stroke-width:2;stroke-miterlimit:4;stroke-dasharray:none;stroke-opacity:1"
       x="-249.70619"
       y="175.12537"
       id="text1501"><tspan
         sodipodi:role="line"
         id="tspan1499"
         x="-249.70619"
         y="175.12537"
         style="font-style:normal;font-variant:normal;font-weight:bold;font-stretch:normal;font-size:211.66667175px;font-family:'Bera Sans';-inkscape-font-specification:'Bera Sans Bold';fill:#ffffff;fill-opacity:1;stroke:#c0c0c0;stroke-width:2;stroke-miterlimit:4;stroke-dasharray:none;stroke-opacity:1">+</tspan></text>
    <text
       id="text1505"
       y="175.12537"
       x="-47.706196"
       style="font-style:normal;font-variant:normal;font-weight:normal;font-stretch:normal;font-size:176.3888855px;line-height:1.25;font-family:Gotham;-inkscape-font-specification:Gotham;letter-spacing:0px;word-spacing:0px;fill:#ffffff;fill-opacity:1;stroke:#c0c0c0;stroke-width:2;stroke-miterlimit:4;stroke-dasharray:none;stroke-opacity:1"
       xml:space="preserve"><tspan
         style="font-style:normal;font-variant:normal;font-weight:bold;font-stretch:normal;font-size:211.66667175px;font-family:'Bera Sans';-inkscape-font-specification:'Bera Sans Bold';fill:#ffffff;fill-opacity:1;stroke:#c0c0c0;stroke-width:2;stroke-miterlimit:4;stroke-dasharray:none;stroke-opacity:1"
         y="175.12537"
         x="-47.706196"
         id="tspan1503"
         sodipodi:role="line">+</tspan></text>
    <text
       xml:space="preserve"
       style="font-style:normal;font-variant:normal;font-weight:normal;font-stretch:normal;font-size:176.3888855px;line-height:1.25;font-family:Gotham;-inkscape-font-specification:Gotham;letter-spacing:0px;word-spacing:0px;fill:#ffffff;fill-opacity:1;stroke:#c0c0c0;stroke-width:2;stroke-miterlimit:4;stroke-dasharray:none;stroke-opacity:1"
       x="-191.39847"
       y="316.77609"
       id="text1509"
       transform="rotate(-90)"><tspan
         sodipodi:role="line"
         id="tspan1507"
         x="-191.39847"
         y="316.77609"
         style="font-style:normal;font-variant:normal;font-weight:bold;font-stretch:normal;font-size:211.66667175px;font-family:'Bera Sans';-inkscape-font-specification:'Bera Sans Bold';fill:#ffffff;fill-opacity:1;stroke:#c0c0c0;stroke-width:2;stroke-miterlimit:4;stroke-dasharray:none;stroke-opacity:1">―</tspan></text>
    <text
       transform="rotate(-90)"
       id="text1513"
       y="518.77612"
       x="-191.39848"
       style="font-style:normal;font-variant:normal;font-weight:normal;font-stretch:normal;font-size:176.3888855px;line-height:1.25;font-family:Gotham;-inkscape-font-specification:Gotham;letter-spacing:0px;word-spacing:0px;fill:#ffffff;fill-opacity:1;stroke:#c0c0c0;stroke-width:2;stroke-miterlimit:4;stroke-dasharray:none;stroke-opacity:1"
       xml:space="preserve"><tspan
         style="font-style:normal;font-variant:normal;font-weight:bold;font-stretch:normal;font-size:211.66667175px;font-family:'Bera Sans';-inkscape-font-specification:'Bera Sans Bold';fill:#ffffff;fill-opacity:1;stroke:#c0c0c0;stroke-width:2;stroke-miterlimit:4;stroke-dasharray:none;stroke-opacity:1"
         y="518.77612"
         x="-191.39848"
         id="tspan1511"
         sodipodi:role="line">―</tspan></text>
  </g>
</svg>
